<?xml version="1.0" encoding="UTF-8"?>
<CustomTab xmlns="http://soap.sforce.com/2006/04/metadata">
    <description>Created by Lightning App Builder</description>
    <flexiPage>Find_Contact</flexiPage>
    <label>Find a Patient</label>
    <mobileReady>true</mobileReady>
    <motif>Custom61: Castle</motif>
</CustomTab>
