<?xml version="1.0" encoding="UTF-8" standalone="no"?>
<svg width="100px" height="100px" viewBox="0 0 100 100" version="1.1" xmlns="http://www.w3.org/2000/svg" xmlns:xlink="http://www.w3.org/1999/xlink">
    <g stroke="none" stroke-width="1" fill="none" fill-rule="evenodd">
        <path d="M120,108 C120,114.6 114.6,120 108,120 L12,120 C5.4,120 0,114.6 0,108 L0,12 C0,5.4 5.4,0 12,0 L108,0 C114.6,0 120,5.4 120,12 L120,108 L120,108 Z" id="Shape" fill="#409FED"/>
        <path fill="#fff" d="M54.167 74.167c-2.083 2.5-6.25 2.5-8.75 0-7.083-7.917-20.833-22.5-20.833-22.5-6.25-6.667-6.25-17.083 0-23.75 2.917-3.333 7.083-5 11.25-5 4.167 0 8.333 1.667 11.25 5l1.25 1.667c.833.833 2.5.833 3.333 0l.833-1.667h.417c2.917-3.333 7.083-5 11.25-5 4.167 0 8.333 1.667 11.25 5 6.25 6.25 6.25 17.083 0 23.75 0 0-13.75 14.583-21.25 22.5z"></path>
    </g>
</svg>