<?xml version="1.0" encoding="UTF-8" standalone="no"?>
<svg width="100px" height="100px" viewBox="0 0 100 100" version="1.1" xmlns="http://www.w3.org/2000/svg" xmlns:xlink="http://www.w3.org/1999/xlink">
    <g stroke="none" stroke-width="1" fill="none" fill-rule="evenodd">
        <path d="M120,108 C120,114.6 114.6,120 108,120 L12,120 C5.4,120 0,114.6 0,108 L0,12 C0,5.4 5.4,0 12,0 L108,0 C114.6,0 120,5.4 120,12 L120,108 L120,108 Z" id="Shape" fill="#409FED"/>
        <path fill="#fff" d="M80 71.25v2.917c0 3.333-2.5 5.833-5.833 5.833H25.833c-3.333 0-5.833-2.5-5.833-5.833v-2.917c0-7.5 8.333-11.667 16.667-15.417 0 0 .417 0 .833-.417.417 0 1.25 0 1.667.417 3.333 2.083 7.083 3.333 10.833 3.333 3.75 0 7.5-1.25 10.833-3.333.417-.417 1.25-.417 1.667 0 .417 0 .833 0 .833.417 8.333 3.333 16.667 7.5 16.667 15z"></path>
        <ellipse fill="#fff" cx="50" cy="36.5" rx="14.9" ry="16.5"></ellipse>
    </g>
</svg>